{
	"data": [
		{
			"url": "https://fastly.picsum.photos/id/14/200/300.jpg?grayscale&hmac=Yybf02W6sryuzrZ6nw9N4I_PQwLAOxsz1PBp67CvvjU",
			"value": "Image 1",
			"description": "Lorem Ipsum 1"
		},
		{
			"url": "https://fastly.picsum.photos/id/79/200/300.jpg?hmac=uqOMZrx9qlolrYp0xS5t84xjCiD_BIjfxIugTa1xjho",
			"value": "Image 2",
			"description": "Lorem Ipsum 2"
		},
		{
			"url": "https://fastly.picsum.photos/id/295/200/300.jpg?grayscale&hmac=JG8eXLihu2oU8Zorp_dUNugodwkgVB41Yv1gxdjmDQ4",
			"value": "Image 3",
			"description": "Lorem Ipsum 3"
		},
		{
			"url": "https://fastly.picsum.photos/id/283/200/300.jpg?grayscale&hmac=hkTGMHAk6diTvN_i3oIr88SPyoT0WytTfg1SkII5VfA",
			"value": "Image 4",
			"description": "Lorem Ipsum 4"
		}
	]
}
